%!PS
%%Version: 3.3.1
%%DocumentFonts: (atend)
%%Pages: (atend)
%%EndComments
%
% Version 3.3.1 prologue for troff files.
%

/#copies 1 store
/aspectratio 1 def
/formsperpage 1 def
/landscape false def
/linewidth .3 def
/magnification 1 def
/margin 0 def
/orientation 0 def
/resolution 720 def
/rotation 1 def
/xoffset 0 def
/yoffset 0 def

/roundpage true def
/useclippath true def
/pagebbox [0 0 612 792] def

/R  /Times-Roman def
/I  /Times-Italic def
/B  /Times-Bold def
/BI /Times-BoldItalic def
/H  /Helvetica def
/HI /Helvetica-Oblique def
/HB /Helvetica-Bold def
/HX /Helvetica-BoldOblique def
/CW /Courier def
/CO /Courier def
/CI /Courier-Oblique def
/CB /Courier-Bold def
/CX /Courier-BoldOblique def
/PA /Palatino-Roman def
/PI /Palatino-Italic def
/PB /Palatino-Bold def
/PX /Palatino-BoldItalic def
/Hr /Helvetica-Narrow def
/Hi /Helvetica-Narrow-Oblique def
/Hb /Helvetica-Narrow-Bold def
/Hx /Helvetica-Narrow-BoldOblique def
/KR /Bookman-Light def
/KI /Bookman-LightItalic def
/KB /Bookman-Demi def
/KX /Bookman-DemiItalic def
/AR /AvantGarde-Book def
/AI /AvantGarde-BookOblique def
/AB /AvantGarde-Demi def
/AX /AvantGarde-DemiOblique def
/NR /NewCenturySchlbk-Roman def
/NI /NewCenturySchlbk-Italic def
/NB /NewCenturySchlbk-Bold def
/NX /NewCenturySchlbk-BoldItalic def
/ZD /ZapfDingbats def
/ZI /ZapfChancery-MediumItalic def
/S  /S def
/S1 /S1 def
/GR /Symbol def

/inch {72 mul} bind def
/min {2 copy gt {exch} if pop} bind def

/setup {
	counttomark 2 idiv {def} repeat pop

	landscape {/orientation 90 orientation add def} if
	/scaling 72 resolution div def
	linewidth setlinewidth
	1 setlinecap

	pagedimensions
	xcenter ycenter translate
	orientation rotation mul rotate
	width 2 div neg height 2 div translate
	xoffset inch yoffset inch neg translate
	margin 2 div dup neg translate
	magnification dup aspectratio mul scale
	scaling scaling scale

	addmetrics
	0 0 moveto
} def

/pagedimensions {
	useclippath userdict /gotpagebbox known not and {
		/pagebbox [clippath pathbbox newpath] def
		roundpage currentdict /roundpagebbox known and {roundpagebbox} if
	} if
	pagebbox aload pop
	4 -1 roll exch 4 1 roll 4 copy
	landscape {4 2 roll} if
	sub /width exch def
	sub /height exch def
	add 2 div /xcenter exch def
	add 2 div /ycenter exch def
	userdict /gotpagebbox true put
} def

/addmetrics {
	/Symbol /S null Sdefs cf
	/Times-Roman /S1 StandardEncoding dup length array copy S1defs cf
} def

/pagesetup {
	/page exch def
	currentdict /pagedict known currentdict page known and {
		page load pagedict exch get cvx exec
	} if
} def

/decodingdefs [
	{counttomark 2 idiv {y moveto show} repeat}
	{neg /y exch def counttomark 2 idiv {y moveto show} repeat}
	{neg moveto {2 index stringwidth pop sub exch div 0 32 4 -1 roll widthshow} repeat}
	{neg moveto {spacewidth sub 0.0 32 4 -1 roll widthshow} repeat}
	{counttomark 2 idiv {y moveto show} repeat}
	{neg setfunnytext}
] def

/setdecoding {/t decodingdefs 3 -1 roll get bind def} bind def

/w {neg moveto show} bind def
/m {neg dup /y exch def moveto} bind def
/done {/lastpage where {pop lastpage} if} def

/f {
	dup /font exch def findfont exch
	dup /ptsize exch def scaling div dup /size exch def scalefont setfont
	linewidth ptsize mul scaling 10 mul div setlinewidth
	/spacewidth ( ) stringwidth pop def
} bind def

/changefont {
	/fontheight exch def
	/fontslant exch def
	currentfont [
		1 0
		fontheight ptsize div fontslant sin mul fontslant cos div
		fontheight ptsize div
		0 0
	] makefont setfont
} bind def

/sf {f} bind def

/cf {
	dup length 2 idiv
	/entries exch def
	/chtab exch def
	/newencoding exch def
	/newfont exch def

	findfont dup length 1 add dict
	/newdict exch def
	{1 index /FID ne {newdict 3 1 roll put}{pop pop} ifelse} forall

	newencoding type /arraytype eq {newdict /Encoding newencoding put} if

	newdict /Metrics entries dict put
	newdict /Metrics get
	begin
		chtab aload pop
		1 1 entries {pop def} for
		newfont newdict definefont pop
	end
} bind def

%
% A few arrays used to adjust reference points and character widths in some
% of the printer resident fonts. If square roots are too high try changing
% the lines describing /radical and /radicalex to,
%
%	/radical	[0 -75 550 0]
%	/radicalex	[-50 -75 500 0]
%
% Move braceleftbt a bit - default PostScript character is off a bit.
%

/Sdefs [
	/bracketlefttp		[201 500]
	/bracketleftbt		[201 500]
	/bracketrighttp		[-81 380]
	/bracketrightbt		[-83 380]
	/braceleftbt		[203 490]
	/bracketrightex		[220 -125 500 0]
	/radical		[0 0 550 0]
	/radicalex		[-50 0 500 0]
	/parenleftex		[-20 -170 0 0]
	/integral		[100 -50 500 0]
	/infinity		[10 -75 730 0]
] def

/S1defs [
	/underscore		[0 80 500 0]
	/endash			[7 90 650 0]
] def
%
% Tries to round clipping path dimensions, as stored in array pagebbox, so they
% match one of the known sizes in the papersizes array. Lower left coordinates
% are always set to 0.
%

/roundpagebbox {
    7 dict begin
	/papersizes [8.5 inch 11 inch 14 inch 17 inch] def

	/mappapersize {
		/val exch def
		/slop .5 inch def
		/diff slop def
		/j 0 def
		0 1 papersizes length 1 sub {
			/i exch def
			papersizes i get val sub abs
			dup diff le {/diff exch def /j i def} {pop} ifelse
		} for
		diff slop lt {papersizes j get} {val} ifelse
	} def

	pagebbox 0 0 put
	pagebbox 1 0 put
	pagebbox dup 2 get mappapersize 2 exch put
	pagebbox dup 3 get mappapersize 3 exch put
    end
} bind def

%%EndProlog
%%BeginSetup
mark
/resolution 720 def
setup
2 setdecoding
%%EndSetup
%%Page: 1 1
/saveobj save def
mark
1 pagesetup
10 R f
( M. Kristol)2 442( David)1 3328(HTTP Working Group)2 910 3 720 960 t
( Laboratories, Lucent Technologies)3 1419( Bell)1 2420(INTERNET DRAFT)1 841 3 720 1080 t
10 S f
(<)720 1200 w
10 R f
(draft-ietf-http-state-mgmt-errata-00.ps)775 1200 w
10 S f
(>)2307 1200 w
10 R f
( August 3, 1997)3 639( Expires)1 3356(February 3, 1997)2 685 3 720 1320 t
12 B f
(HTTP State Management Mechanism \(Errata\))4 2400 1 1860 1700 t
10 B f
(Status of this Memo)3 852 1 2459 2120 t
10 R f
( are working documents of the Internet)6 1786( Internet-Drafts)1 681(This document is an Internet-Draft.)4 1563 3 870 2300 t
( groups may also)3 692( that other)2 415( Note)1 249(Engineering Task Force \(IETF\), its areas, and its working groups.)9 2674 4 870 2420 t
(distribute working documents as Internet-Drafts.)4 1944 1 870 2540 t
( documents valid for a maximum of six months and may be updated,)12 3033(Internet-Drafts are draft)2 997 2 870 2720 t
( inappropriate to use Internet- Drafts as)6 1592( is)1 97( It)1 116(replaced, or obsoleted by other documents at any time.)8 2225 4 870 2840 t
(reference material or to cite them other than as ``work in progress.'')11 2714 1 870 2960 t
( of any Internet-Draft, please check the ``1id-abstracts.txt'' listing)8 2872(To learn the current status)4 1158 2 870 3140 t
( Internet- Drafts Shadow Directories on ftp.is.co.za \(Africa\), nic.nordu.net \(Europe\),)9 3386(contained in the)2 644 2 870 3260 t
(munnari.oz.au \(Paci\256c Rim\), ds.internic.net \(US East Coast\), or ftp.isi.edu \(US West Coast\).)11 3702 1 870 3380 t
(This is author's draft 1.9.)4 1010 1 870 3560 t
9 B f
(1. ABSTRACT)1 604 1 720 3800 t
10 R f
(This document contains miscellaneous small wording changes and clari\256cations to)9 3656 1 720 3980 t
10 CW f
(draft-ietf-http-)4440 3980 w
(state-mgmt-05)720 4100 w
10 R f
(, the HTTP State Management Mechanism draft.)6 1947 1 1500 4100 t
9 B f
( CHANGES)1 468(2. PROPOSED)1 604 2 720 4340 t
10 R f
( or changed text is shown in []'s.)7 1309( New)1 238(Changes are referenced to the sections in the original document.)9 2561 3 720 4520 t
(4.2.2)720 4700 w
10 CW f
(Set-Cookie)945 4700 w
10 R f
(Syntax)1570 4700 w
(Under the heading:)2 765 1 1080 4820 t
10 CW f
(Comment=)1870 4820 w
10 I f
(comment)2350 4820 w
10 R f
(:)2710 4820 w
( cookies can contain private information about a user, the [)10 2388(``Optional. Because)1 827 2 1080 5000 t
10 CW f
(Comment)4295 5000 w
10 R f
(] attribute allows)2 685 1 4715 5000 t
(an origin server to document its intended use of a cookie....'')10 2429 1 1080 5120 t
(Under the heading:)2 765 1 1080 5300 t
10 CW f
(Secure)1870 5300 w
10 R f
(:)2230 5300 w
(``Optional. The)1 655 1 1080 5480 t
10 CW f
(Secure)1769 5480 w
10 R f
( \(unspeci\256ed\) secure)2 845(attribute \(with no value\) directs the user agent to use only)10 2392 2 2163 5480 t
( cookie[, to protect the con\256dentially and)6 1717(means to contact the origin server whenever it sends back this)10 2603 2 1080 5600 t
(authenticity of the information in the cookie].'')6 1889 1 1080 5720 t
( Caching)1 358(4.2.3 Controlling)1 712 2 720 5900 t
(The directive)1 533 1 1080 6080 t
10 CW f
(max-age=0)1642 6080 w
10 R f
(is necessary in the)3 741 1 2211 6080 t
10 CW f
(Cache-Control)2981 6080 w
10 R f
( Therefore,)1 472( force revalidation.)2 766(header to)1 372 3 3790 6080 t
(two example headers must change.)4 1394 1 1080 6200 t
(The example header in the second bullet should read)8 2341 1 1080 6380 t
10 CW f
(Cache-Control: must-revalidate)1 1831 1 3476 6380 t
10 R f
([)5307 6380 w
10 CW f
(,)5340 6380 w
(max-age=0)1080 6500 w
10 R f
(].)1620 6500 w
( header in the third bullet should read)7 1726(The example)1 550 2 1080 6680 t
10 CW f
(Cache-Control: proxy-revalidate)1 1893 1 3414 6680 t
10 R f
([)5307 6680 w
10 CW f
(,)5340 6680 w
(max-age=0)1080 6800 w
10 R f
(].)1620 6800 w
( Cookies)1 353(4.3.2 Rejecting)1 633 2 720 6980 t
( violations, a user agent rejects a cookie \(shall not store its)11 2583(``To prevent possible security or privacy)5 1737 2 1080 7100 t
( [of the attributes explicitly present in the Set-Cookie response)9 2563(information\) if any of the following is true)7 1757 2 1080 7220 t
(header]:...'')1080 7340 w
( 1])1 108( [Page)1 1466(Kristol draft-ietf-http-state-mgmt-errata-00.ps)1 3106 3 720 7728 t
cleartomark
showpage
saveobj restore
%%EndPage: 1 1
%%Page: 2 2
/saveobj save def
mark
2 pagesetup
10 R f
( 3, 1997)2 325( February)1 1092( State Management Mechanism \(Errata\))4 1596( HTTP)1 826(INTERNET DRAFT)1 841 5 720 480 t
(10.2 Compatibility with Microsoft's Implementation)4 2109 1 720 960 t
([Insert new section between current sections 10.1 and 10.2.])8 2397 1 1080 1080 t
( and earlier will fail to handle some cookies that use this)11 2360(``Microsoft Internet Explorer \(MSIE\) Version 3)5 1960 2 1080 1260 t
( server sends the following response header to MSIE V3 \(omitting the line)12 3034( example, if a)3 561(speci\256cation. For)1 725 3 1080 1380 t
(breaks\):)1080 1500 w
10 CW f
(Set-cookie: xx="1=2&3-4";)1 1500 1 1080 1680 t
(Comment="blah";)1320 1800 w
(Version=1; Max-Age=15552000; Path=/;)2 2160 1 1320 1920 t
(Expires=Sun, 27 Apr 1997 01:16:23 GMT)5 2220 1 1320 2040 t
10 R f
(then MSIE V3 will send something like the following request header next time:)12 3181 1 1080 2220 t
10 CW f
(Cookie: Max-Age=15552000)1 1440 1 1320 2400 t
10 R f
(instead of the correct)3 839 1 1080 2580 t
10 CW f
(Cookie: xx="1=2&3-4")1 1200 1 1320 2760 t
10 R f
(In other words, MSIE sends back the wrong cookie name and value.'')11 2791 1 1080 2940 t
9 B f
(3. ACKNOWLEDGEMENTS)1 1174 1 720 3180 t
10 R f
( problems and/or suggested improvements in)5 1951(The following people identi\256ed)3 1353 2 720 3360 t
10 CW f
(draft-ietf-http-state-)4080 3360 w
(mgmt-05)720 3480 w
10 R f
( Jason Catlett, Martijn Koster \(reported by Koen)7 2062(: Anselm Baird Smith \(reported by Koen Holtman\),)7 2198 2 1140 3480 t
(Holtman\), Raymie Stata.)2 994 1 720 3600 t
9 B f
( ADDRESS)1 443(4. AUTHOR'S)1 589 2 720 3840 t
10 R f
(David M. Kristol)2 686 1 720 4020 t
(Bell Laboratories, Lucent Technologies)3 1586 1 720 4140 t
( 2A-227)1 330( Room)1 295(600 Mountain Ave.)2 780 3 720 4260 t
( 07974)1 300(Murray Hill, NJ)2 641 2 720 4380 t
(Phone: \(908\) 582-2250)2 927 1 720 4620 t
(FAX: \(908\) 582-5809)2 877 1 720 4740 t
(Email:)720 4860 w
10 CW f
(dmk@bell-labs.com)1012 4860 w
10 R f
(Expires August 3, 1997)3 944 1 4456 5400 t
( 2])1 108( [Page)1 1466(Kristol draft-ietf-http-state-mgmt-errata-00.ps)1 3106 3 720 7728 t
cleartomark
showpage
saveobj restore
%%EndPage: 2 2
%%Trailer
done
%%Pages: 2
%%DocumentFonts: Times-Bold Times-Italic Courier Times-Roman Symbol
